<svg viewBox="0 0 630.31 258.911" fill="none" stroke-linecap="square" stroke-miterlimit="10" xmlns="http://www.w3.org/2000/svg">
    <clipPath id="a">
        <path d="M0 0h630.31v258.91H0V0z"/>
    </clipPath>
    <g clip-path="url(#a)">
        <path fill="none" d="M0 0h630.31v258.91H0z"/>
        <path fill="#999" d="M611.375 9.976a9.04 9.04 0 0118.079 0 9.04 9.04 0 11-18.079 0z" fill-rule="evenodd"/>
        <path fill="#fff" d="M622.221 11.985v.671h-3.78q-.017-.25.077-.484.14-.39.453-.766.328-.375.922-.875.938-.765 1.266-1.203.328-.453.328-.843 0-.422-.297-.704-.297-.296-.781-.296-.5 0-.813.312-.297.297-.312.844l-.719-.078q.078-.813.563-1.235.484-.422 1.296-.422.829 0 1.297.454.485.453.485 1.14 0 .344-.14.672-.142.328-.47.703-.312.36-1.078 1-.625.531-.812.719-.172.187-.297.39h2.812z"/>
        <path fill="#6aa84f" d="M265.15 64.001a9.04 9.04 0 0118.079 0 9.04 9.04 0 11-18.079 0z" fill-rule="evenodd"/>
        <path fill="#b6d7a8" d="M140.78 118.029a9.04 9.04 0 1118.079 0 9.04 9.04 0 11-18.079 0z" fill-rule="evenodd"/>
        <path fill="#e06666" d="M469.029 37.021a9.04 9.04 0 0118.079 0 9.04 9.04 0 11-18.079 0z" fill-rule="evenodd"/>
        <path fill="#6d9eeb" d="M94.714 152.134a9.04 9.04 0 1118.079 0 9.04 9.04 0 01-18.079 0z" fill-rule="evenodd"/>
        <path fill="#9fc5e8" d="M166.714 152.134a9.04 9.04 0 1118.079 0 9.04 9.04 0 01-18.079 0z" fill-rule="evenodd"/>
        <path fill="#c9daf8" d="M382.535 152.134a9.04 9.04 0 1118.079 0 9.04 9.04 0 01-18.079 0z" fill-rule="evenodd"/>
        <path fill="#6d9eeb" d="M58.803 152.134a9.04 9.04 0 1118.079 0 9.04 9.04 0 01-18.079 0zM22.892 152.134a9.04 9.04 0 1118.079 0 9.04 9.04 0 01-18.079 0z" fill-rule="evenodd"/>
        <path fill="#999" d="M538.396 9.976a9.04 9.04 0 0118.079 0 9.04 9.04 0 11-18.079 0z" fill-rule="evenodd"/>
        <path fill="#fff" d="M544.86 12.656h-.704V8.172q-.25.25-.671.5-.407.234-.735.344v-.672q.594-.281 1.031-.672.438-.39.625-.766h.454v5.75zm2.199 0v-.796h.797v.796h-.797zm4.472 0h-.703V8.172q-.25.25-.672.5-.406.234-.734.344v-.672q.594-.281 1.031-.672.438-.39.625-.766h.453v5.75z"/>
        <path fill="#999" d="M427.493 9.976a9.04 9.04 0 0118.079 0 9.04 9.04 0 11-18.079 0z" fill-rule="evenodd"/>
        <path fill="#fff" d="M437.293 12.656h-.704V8.172q-.25.25-.671.5-.407.234-.735.344v-.672q.594-.281 1.031-.672.438-.39.625-.766h.454v5.75z"/>
        <path fill="none" d="M0 9.976a9.04 9.04 0 1118.079 0A9.04 9.04 0 010 9.976z"/>
        <path stroke="#000" stroke-linejoin="round" stroke-linecap="butt" stroke-dasharray="4.0,3.0" d="M0 9.976h0A9.04 9.04 0 019.04.937h0a9.04 9.04 0 019.039 9.04h0a9.04 9.04 0 01-9.04 9.039h0A9.04 9.04 0 010 9.976z"/>
        <path fill="none" d="M18.079 9.976h204.708v.063h204.71"/>
        <path stroke="#000" stroke-linejoin="round" stroke-linecap="butt" d="M18.079 9.976h204.708v.063h198.71"/>
        <path fill="#000" stroke="#000" stroke-linecap="butt" d="M421.496 11.691l4.538-1.652-4.538-1.651z" fill-rule="evenodd"/>
        <path fill="none" d="M445.572 9.976h46.412v.063h46.407"/>
        <path stroke="#000" stroke-linejoin="round" stroke-linecap="butt" d="M445.572 9.976h46.412v.063h40.407"/>
        <path fill="#000" stroke="#000" stroke-linecap="butt" d="M532.391 11.691l4.538-1.652-4.538-1.651z" fill-rule="evenodd"/>
        <path fill="none" d="M556.475 9.976h27.45v.063h27.448"/>
        <path stroke="#000" stroke-linejoin="round" stroke-linecap="butt" d="M556.475 9.976h27.45v.063h21.448"/>
        <path fill="#000" stroke="#000" stroke-linecap="butt" d="M605.373 11.691l4.538-1.652-4.538-1.651z" fill-rule="evenodd"/>
        <path fill="#ea9999" d="M124.058 240.202h113.417v18.079H124.058z" fill-rule="evenodd"/>
        <path fill="#000" d="M157.852 252.981v-7.625h2.86q.874 0 1.406.235.53.219.828.703.297.484.297 1.016 0 .484-.266.921-.266.422-.797.688.688.203 1.063.703.375.484.375 1.14 0 .548-.235 1.016-.218.453-.562.703-.328.25-.828.375-.5.125-1.235.125h-2.906zm1.016-4.421h1.64q.672 0 .97-.094.374-.11.562-.375.203-.266.203-.672 0-.375-.188-.656-.172-.297-.515-.407-.329-.109-1.157-.109h-1.515v2.313zm0 3.515h1.89q.485 0 .688-.031.344-.063.578-.203.234-.156.39-.422.157-.281.157-.656 0-.422-.219-.735-.219-.312-.61-.437-.39-.125-1.124-.125h-1.75v2.61zm9.639.906v-.812q-.657.937-1.75.937-.5 0-.922-.187-.422-.188-.625-.469-.203-.281-.297-.703-.047-.266-.047-.875v-3.422h.937v3.063q0 .734.047 1 .094.36.375.578.297.203.703.203.422 0 .797-.203.375-.219.516-.594.156-.375.156-1.078v-2.969h.938v5.531h-.828zm2.13.454l.905.14q.063.422.329.61.343.265.937.265.656 0 1-.265.36-.25.484-.72.079-.296.079-1.202-.625.718-1.532.718-1.14 0-1.765-.812-.625-.828-.625-1.984 0-.782.281-1.454.297-.671.828-1.03.547-.376 1.281-.376.985 0 1.61.797v-.672h.875v4.781q0 1.297-.266 1.829-.266.546-.844.859-.562.312-1.39.312-.985 0-1.594-.453-.61-.437-.594-1.343zm.78-3.313q0 1.078.422 1.578.438.5 1.078.5.657 0 1.094-.484.438-.5.438-1.563 0-1.015-.453-1.53-.454-.517-1.094-.517-.61 0-1.047.516-.438.5-.438 1.5zm8.497 2.86v-4.797h-.828v-.735h.828v-.578q0-.562.11-.828.124-.375.468-.594.344-.234.953-.234.39 0 .875.094l-.14.828q-.297-.063-.547-.063-.422 0-.61.188-.172.187-.172.687v.5h1.079v.735h-1.079v4.796h-.937zm2.742-6.547v-1.079h.937v1.079h-.937zm0 6.546v-5.53h.937v5.53h-.937zm1.742 0l2.016-2.875-1.86-2.656h1.172l.844 1.297.39.625q.22-.344.407-.61l.938-1.312h1.125l-1.922 2.61 2.062 2.921h-1.156l-1.125-1.718-.297-.469-1.453 2.187h-1.14zm8.742.125l.453-2.218h-.875v-.766h1.032l.39-1.89h-1.422v-.782h1.578l.454-2.234h.78l-.452 2.234h1.64l.453-2.234h.782l-.453 2.234h.906v.781h-1.063l-.39 1.891h1.453v.766h-1.61l-.453 2.218h-.78l.452-2.218h-1.64l-.454 2.218h-.78zm1.39-2.984h1.641l.391-1.89h-1.64l-.391 1.89zm9.365 1.953v.906h-5.031q-.016-.343.109-.656.187-.515.61-1.015.421-.5 1.234-1.141 1.234-1.031 1.672-1.625.437-.594.437-1.125 0-.563-.406-.938-.39-.39-1.031-.39-.672 0-1.079.406-.406.406-.406 1.125l-.969-.094q.094-1.078.735-1.64.656-.563 1.734-.563 1.11 0 1.75.61.64.609.64 1.5 0 .468-.187.906-.187.437-.625.937-.437.485-1.453 1.328-.828.72-1.078.97-.234.25-.39.5h3.734z"/>
        <path fill="#b6d7a8" d="M241.09 189.65h113.417v18.08H241.089z" fill-rule="evenodd"/>
        <path fill="#000" d="M287.655 202.43v-7.625h1.031l4.016 5.985v-5.985h.969v7.625h-1.047l-4-6v6h-.969zm11.367-1.781l.97.125q-.235.844-.86 1.313-.61.468-1.578.468-1.203 0-1.922-.75-.703-.75-.703-2.093 0-1.391.718-2.157.72-.781 1.86-.781 1.11 0 1.812.766.703.75.703 2.125v.234h-4.125q.047.922.516 1.406.469.485 1.156.485.516 0 .875-.266.36-.281.578-.875zm-3.078-1.516h3.094q-.062-.687-.36-1.046-.452-.532-1.156-.532-.64 0-1.093.438-.438.422-.485 1.14zm4.599 3.297l2.015-2.875-1.86-2.656h1.173l.844 1.297.39.625q.219-.344.406-.61l.938-1.312h1.125l-1.922 2.61 2.063 2.921h-1.157l-1.125-1.718-.297-.47-1.453 2.188h-1.14zm8-.843l.125.828q-.39.093-.703.093-.5 0-.782-.156-.28-.172-.406-.437-.11-.266-.11-1.11v-3.172h-.687v-.734h.688v-1.36l.937-.562v1.922h.938v.734h-.938v3.235q0 .39.047.515.047.11.156.188.11.062.328.062.157 0 .407-.046z"/>
        <path fill="#e06666" d="M7.026 240.202h113.418v18.079H7.026z" fill-rule="evenodd"/>
        <path fill="#000" d="M40.82 252.981v-7.625h2.86q.875 0 1.406.235.531.219.828.703.297.484.297 1.016 0 .484-.265.921-.266.422-.797.688.687.203 1.062.703.375.484.375 1.14 0 .548-.234 1.016-.219.453-.563.703-.328.25-.828.375-.5.125-1.234.125H40.82zm1.016-4.421h1.64q.673 0 .97-.094.375-.11.562-.375.203-.266.203-.672 0-.375-.187-.656-.172-.297-.516-.407-.328-.109-1.156-.109h-1.516v2.313zm0 3.515h1.89q.485 0 .688-.031.344-.063.578-.203.235-.156.391-.422.156-.281.156-.656 0-.422-.218-.735-.22-.312-.61-.437t-1.125-.125h-1.75v2.61zm9.64.906v-.812q-.657.937-1.75.937-.5 0-.923-.187-.422-.188-.625-.469-.203-.281-.297-.703-.047-.266-.047-.875v-3.422h.938v3.063q0 .734.047 1 .094.36.375.578.297.203.703.203.422 0 .797-.203.375-.219.515-.594.157-.375.157-1.078v-2.969h.937v5.531h-.828zm2.129.454l.906.14q.062.422.328.61.344.265.938.265.656 0 1-.265.359-.25.484-.72.078-.296.078-1.202-.625.718-1.531.718-1.14 0-1.766-.812-.625-.828-.625-1.984 0-.782.281-1.454.297-.671.829-1.03.546-.376 1.28-.376.985 0 1.61.797v-.672h.875v4.781q0 1.297-.265 1.829-.266.546-.844.859-.563.312-1.39.312-.985 0-1.595-.453-.609-.437-.593-1.343zm.781-3.313q0 1.078.422 1.578.437.5 1.078.5.656 0 1.094-.484.437-.5.437-1.563 0-1.015-.453-1.53-.453-.517-1.094-.517-.609 0-1.047.516-.437.5-.437 1.5zm8.496 2.86v-4.797h-.828v-.735h.828v-.578q0-.562.11-.828.125-.375.469-.594.343-.234.953-.234.39 0 .875.094l-.14.828q-.298-.063-.548-.063-.422 0-.61.188-.171.187-.171.687v.5h1.078v.735H63.82v4.796h-.938zm2.742-6.547v-1.079h.938v1.079h-.938zm0 6.546v-5.53h.938v5.53h-.938zm1.743 0l2.015-2.875-1.859-2.656h1.172l.844 1.297.39.625q.22-.344.407-.61l.937-1.312h1.125l-1.922 2.61 2.063 2.921h-1.157l-1.125-1.718-.296-.469-1.454 2.187h-1.14zm8.742.125l.453-2.218h-.875v-.766h1.031l.39-1.89h-1.421v-.782h1.578l.453-2.234h.781l-.453 2.234h1.64l.454-2.234h.781l-.453 2.234h.906v.781h-1.062l-.39 1.891h1.452v.766h-1.609l-.453 2.218h-.781l.453-2.218h-1.64l-.454 2.218h-.781zm1.39-2.984h1.641l.39-1.89h-1.64l-.39 1.89zm7.974 2.86h-.938v-5.97q-.344.329-.89.657-.547.312-.985.469v-.907q.797-.359 1.375-.89.594-.531.828-1.016h.61v7.656z"/>
        <path fill="#999" d="M7.026 189.65h113.418v18.078H7.026z" fill-rule="evenodd"/>
        <path fill="#000" d="M52.983 202.429v-7.625H54.5l1.797 5.39q.25.766.375 1.141.125-.422.406-1.234l1.828-5.297h1.344v7.625h-.969v-6.39l-2.219 6.39h-.906l-2.203-6.5v6.5h-.969zm12.393-.688q-.532.454-1.016.641-.469.172-1.016.172-.922 0-1.406-.438-.484-.453-.484-1.14 0-.406.172-.735.187-.343.484-.546.312-.204.687-.313.266-.062.829-.14 1.125-.126 1.671-.313v-.25q0-.578-.265-.813-.36-.312-1.063-.312-.656 0-.984.234-.313.235-.453.813l-.922-.125q.125-.578.406-.938.297-.375.828-.562.547-.203 1.25-.203.719 0 1.157.172.437.171.64.421.219.25.297.641.047.234.047.86v1.25q0 1.296.062 1.656.063.343.235.656h-.969q-.156-.297-.187-.688zm-.079-2.078q-.515.203-1.53.344-.579.078-.829.188-.234.109-.36.312-.124.188-.124.438 0 .375.28.625.282.25.829.25.531 0 .953-.235.422-.234.625-.656.156-.313.156-.938v-.328zm2.396-3.78v-1.079h.937v1.078h-.937zm0 6.546v-5.531h.937v5.531h-.937zm2.367 0v-5.531h.844v.797q.61-.922 1.75-.922.5 0 .922.187.422.172.625.469.219.297.297.687.047.266.047.922v3.391h-.938v-3.36q0-.578-.11-.859-.109-.281-.39-.453-.266-.172-.64-.172-.594 0-1.032.39-.437.376-.437 1.438v3.016h-.938z"/>
        <path fill="#6d9eeb" d="M7.026 214.925h113.418v18.079H7.026z" fill-rule="evenodd"/>
        <path fill="#000" d="M38.84 227.705v-7.625h5.141v.89h-4.125v2.375h3.579v.89h-3.579v3.47h-1.015zm10.12-1.782l.968.125q-.234.844-.86 1.313-.609.469-1.577.469-1.203 0-1.922-.75-.703-.75-.703-2.094 0-1.39.718-2.156.72-.782 1.86-.782 1.11 0 1.812.766.703.75.703 2.125v.234h-4.125q.047.922.516 1.407.469.484 1.156.484.516 0 .875-.266.36-.28.578-.875zm-3.079-1.515h3.094q-.062-.688-.36-1.047-.452-.531-1.156-.531-.64 0-1.093.437-.438.422-.485 1.14zm8.833 2.61q-.531.452-1.016.64-.468.172-1.015.172-.922 0-1.406-.438-.485-.453-.485-1.14 0-.407.172-.735.188-.344.484-.547.313-.203.688-.312.266-.063.828-.14 1.125-.126 1.672-.313v-.25q0-.579-.266-.813-.359-.312-1.062-.312-.656 0-.985.234-.312.234-.453.812l-.922-.125q.125-.578.407-.937.297-.375.828-.563.547-.203 1.25-.203.719 0 1.156.172.438.172.64.422.22.25.298.64.046.235.046.86v1.25q0 1.297.063 1.656.062.344.234.657h-.968q-.157-.297-.188-.688zm-.078-2.08q-.516.204-1.531.345-.578.078-.828.187-.235.11-.36.313-.125.187-.125.437 0 .375.281.625.282.25.829.25.53 0 .953-.234.422-.235.625-.656.156-.313.156-.938v-.328zm4.442 1.923l.125.828q-.39.094-.703.094-.5 0-.781-.157-.282-.171-.407-.437-.109-.266-.109-1.11v-3.171h-.687v-.735h.687v-1.36l.938-.562v1.922h.937v.735h-.937v3.234q0 .39.046.516.047.11.157.187.11.063.328.063.156 0 .406-.047zm4.539.844v-.813q-.656.938-1.75.938-.5 0-.922-.188-.422-.187-.625-.469-.203-.28-.297-.703-.047-.265-.047-.875v-3.422h.938v3.063q0 .734.047 1 .093.36.375.578.296.203.703.203.422 0 .797-.203.375-.219.515-.594.156-.375.156-1.078v-2.969h.938v5.532h-.828zm2.286 0v-5.532h.843v.844q.329-.594.594-.781.281-.188.61-.188.468 0 .953.313l-.313.86q-.344-.204-.687-.204-.313 0-.563.188-.234.187-.344.515-.156.5-.156 1.094v2.89h-.937zm7.345-1.782l.969.125q-.234.844-.86 1.313-.609.469-1.578.469-1.203 0-1.921-.75-.704-.75-.704-2.094 0-1.39.72-2.156.718-.782 1.859-.782 1.109 0 1.812.766.703.75.703 2.125v.234h-4.125q.047.922.516 1.407.469.484 1.156.484.516 0 .875-.266.36-.28.578-.875zm-3.078-1.515h3.094q-.063-.688-.36-1.047-.453-.531-1.156-.531-.64 0-1.094.437-.437.422-.484 1.14zm8.012 3.422l.453-2.22h-.875v-.765h1.032l.39-1.89H77.76v-.782h1.578l.454-2.234h.78l-.452 2.234h1.64l.453-2.234h.782l-.453 2.234h.906v.782h-1.063l-.39 1.89h1.453v.766h-1.61l-.453 2.219h-.78l.452-2.22h-1.64l-.454 2.22h-.78zm1.39-2.985h1.641l.391-1.89h-1.64l-.391 1.89zm7.974 2.86h-.937v-5.97q-.344.329-.89.657-.548.313-.985.469v-.906q.797-.36 1.375-.891.593-.531.828-1.016h.61v7.657z"/>
        <path fill="#6aa84f" d="M124.058 189.65h113.417v18.08H124.058z" fill-rule="evenodd"/>
        <path fill="#000" d="M162.062 202.43v-7.625h3.375q1.015 0 1.546.203.532.204.844.735.328.515.328 1.14 0 .813-.53 1.375-.517.547-1.626.704.406.187.61.375.453.406.843 1.015l1.328 2.078h-1.265l-1.016-1.593q-.437-.688-.734-1.047-.282-.36-.516-.5-.219-.157-.453-.203-.172-.047-.563-.047h-1.171v3.39h-1zm1-4.265h2.171q.688 0 1.079-.141.39-.14.593-.453.203-.313.203-.688 0-.546-.39-.89t-1.235-.344h-2.421v2.516zm10.336 2.484l.969.125q-.235.844-.86 1.313-.61.468-1.578.468-1.203 0-1.922-.75-.703-.75-.703-2.093 0-1.391.719-2.157.719-.781 1.86-.781 1.109 0 1.812.766.703.75.703 2.125v.234h-4.125q.047.922.515 1.406.47.485 1.157.485.515 0 .875-.266.359-.281.578-.875zm-3.078-1.516h3.093q-.062-.687-.359-1.046-.453-.532-1.156-.532-.64 0-1.094.438-.437.422-.484 1.14zm5.207 3.297v-7.625h.938v7.625h-.938zm6.165-1.781l.969.125q-.235.844-.86 1.313-.61.468-1.578.468-1.203 0-1.922-.75-.703-.75-.703-2.093 0-1.391.719-2.157.719-.781 1.86-.781 1.109 0 1.812.766.703.75.703 2.125v.234h-4.125q.047.922.515 1.406.47.485 1.157.485.515 0 .875-.266.359-.281.578-.875zm-3.078-1.516h3.093q-.062-.687-.359-1.046-.453-.532-1.156-.532-.64 0-1.094.438-.437.422-.484 1.14zm8.832 2.61q-.53.453-1.015.64-.469.172-1.016.172-.922 0-1.406-.437-.484-.453-.484-1.14 0-.407.171-.735.188-.344.485-.547.312-.203.687-.313.266-.062.828-.14 1.125-.125 1.672-.313v-.25q0-.578-.265-.812-.36-.313-1.063-.313-.656 0-.984.235-.313.234-.453.812l-.922-.125q.125-.578.406-.937.297-.375.828-.563.547-.203 1.25-.203.719 0 1.156.172.438.172.641.422.219.25.297.64.047.235.047.86v1.25q0 1.297.062 1.656.063.344.235.656h-.97q-.155-.297-.187-.687zm-.078-2.078q-.515.203-1.531.343-.578.079-.828.188-.234.11-.36.312-.124.188-.124.438 0 .375.28.625.282.25.829.25.531 0 .953-.234.422-.235.625-.657.156-.312.156-.937v-.328zm2.02 1.109l.922-.14q.078.562.438.859.36.297 1 .297t.953-.266q.312-.266.312-.625 0-.312-.28-.5-.188-.125-.954-.312-1.031-.266-1.437-.454-.391-.187-.594-.515-.203-.344-.203-.75 0-.36.172-.672.171-.328.453-.531.218-.157.593-.266.391-.125.813-.125.656 0 1.14.188.5.187.735.515.234.313.312.86l-.906.125q-.062-.438-.375-.672-.297-.235-.828-.235-.656 0-.937.219-.266.203-.266.484 0 .188.11.329.124.156.359.25.14.062.828.25 1 .265 1.39.437.391.156.61.484.234.313.234.797 0 .469-.281.89-.266.407-.781.642-.516.218-1.172.218-1.078 0-1.64-.437-.563-.453-.72-1.344zm9.485-.125l.969.125q-.235.844-.86 1.313-.61.468-1.578.468-1.203 0-1.922-.75-.703-.75-.703-2.093 0-1.391.719-2.157.719-.781 1.86-.781 1.109 0 1.812.766.703.75.703 2.125v.234h-4.125q.047.922.515 1.406.47.485 1.157.485.515 0 .875-.266.36-.281.578-.875zm-3.078-1.516h3.093q-.062-.687-.359-1.046-.453-.532-1.156-.532-.64 0-1.094.438-.437.422-.484 1.14z"/>
        <path fill="#9fc5e8" d="M124.058 214.927h113.417v18.078H124.058z" fill-rule="evenodd"/>
        <path fill="#000" d="M155.872 227.706v-7.625h5.14v.89h-4.124v2.375h3.578v.891h-3.578v3.469h-1.016zm10.119-1.781l.969.125q-.235.843-.86 1.312-.61.469-1.578.469-1.203 0-1.922-.75-.703-.75-.703-2.094 0-1.39.719-2.156.719-.781 1.86-.781 1.109 0 1.812.765.703.75.703 2.125v.235h-4.125q.047.921.516 1.406.468.484 1.156.484.515 0 .875-.265.36-.282.578-.875zm-3.078-1.516h3.094q-.063-.688-.36-1.047-.453-.531-1.156-.531-.64 0-1.094.437-.437.422-.484 1.141zm8.833 2.61q-.532.452-1.016.64-.469.172-1.016.172-.922 0-1.406-.438-.484-.453-.484-1.14 0-.407.172-.735.187-.343.484-.547.312-.203.687-.312.266-.063.829-.14 1.125-.126 1.671-.313v-.25q0-.578-.265-.813-.36-.312-1.063-.312-.656 0-.984.234-.313.235-.453.813l-.922-.125q.125-.578.406-.938.297-.375.828-.562.547-.203 1.25-.203.72 0 1.157.171.437.172.64.422.219.25.297.641.047.234.047.86v1.25q0 1.296.062 1.656.063.343.235.656h-.969q-.156-.297-.187-.688zm-.079-2.079q-.515.203-1.53.344-.579.078-.829.187-.234.11-.36.313-.124.187-.124.437 0 .375.28.625.282.25.83.25.53 0 .952-.234.422-.234.625-.656.156-.313.156-.938v-.328zm4.443 1.922l.125.828q-.391.094-.704.094-.5 0-.78-.156-.282-.172-.407-.438-.11-.265-.11-1.11v-3.171h-.687v-.734h.688v-1.36l.937-.562v1.922h.938v.734h-.938v3.234q0 .391.047.516.047.11.156.187.11.063.328.063.157 0 .407-.047zm4.538.844v-.813q-.656.938-1.75.938-.5 0-.922-.188-.421-.187-.625-.468-.203-.282-.296-.704-.047-.265-.047-.875v-3.421h.937v3.062q0 .734.047 1 .094.36.375.578.297.203.703.203.422 0 .797-.203.375-.219.516-.594.156-.375.156-1.078v-2.968h.937v5.53h-.828zm2.286 0v-5.531h.844v.843q.328-.593.594-.78.281-.188.61-.188.468 0 .952.312l-.312.86q-.344-.204-.688-.204-.312 0-.562.188-.235.187-.344.515-.156.5-.156 1.094v2.89h-.938zm7.346-1.781l.968.125q-.234.843-.859 1.312-.61.469-1.578.469-1.203 0-1.922-.75-.703-.75-.703-2.094 0-1.39.719-2.156.718-.781 1.86-.781 1.108 0 1.812.765.703.75.703 2.125v.235h-4.125q.047.921.515 1.406.47.484 1.157.484.515 0 .875-.265.359-.282.578-.875zm-3.078-1.516h3.093q-.062-.688-.359-1.047-.453-.531-1.156-.531-.64 0-1.094.437-.438.422-.484 1.141zm8.012 3.422l.453-2.219h-.875v-.766h1.031l.39-1.89h-1.421v-.781h1.578l.453-2.235h.781l-.453 2.235h1.64l.454-2.235h.781l-.453 2.235h.906v.78h-1.062l-.39 1.891h1.452v.766h-1.609l-.453 2.219h-.781l.453-2.219h-1.64l-.454 2.219h-.781zm1.39-2.985h1.641l.39-1.89h-1.64l-.39 1.89zm9.364 1.954v.906h-5.03q-.017-.344.108-.656.188-.516.61-1.016t1.234-1.14q1.235-1.032 1.672-1.626.438-.593.438-1.125 0-.562-.407-.937-.39-.39-1.03-.39-.673 0-1.079.405-.406.407-.406 1.125l-.969-.093q.094-1.078.734-1.64.657-.563 1.735-.563 1.11 0 1.75.609.64.61.64 1.5 0 .469-.187.906-.188.438-.625.938-.438.484-1.453 1.328-.828.719-1.078.969-.235.25-.391.5h3.734z"/>
        <path fill="#c9daf8" d="M241.09 214.927h113.417v18.078H241.089z" fill-rule="evenodd"/>
        <path fill="#000" d="M272.904 227.706v-7.625h5.14v.89h-4.125v2.375h3.579v.891h-3.579v3.469h-1.015zm10.118-1.781l.97.125q-.235.843-.86 1.312-.61.469-1.578.469-1.203 0-1.922-.75-.703-.75-.703-2.094 0-1.39.718-2.156.72-.781 1.86-.781 1.11 0 1.812.765.703.75.703 2.125v.235h-4.125q.047.921.516 1.406.469.484 1.156.484.516 0 .875-.265.36-.282.578-.875zm-3.078-1.516h3.094q-.062-.688-.36-1.047-.452-.531-1.156-.531-.64 0-1.093.437-.438.422-.485 1.141zm8.833 2.61q-.531.452-1.016.64-.468.172-1.015.172-.922 0-1.406-.438-.485-.453-.485-1.14 0-.407.172-.735.188-.343.484-.547.313-.203.688-.312.266-.063.828-.14 1.125-.126 1.672-.313v-.25q0-.578-.266-.813-.36-.312-1.062-.312-.656 0-.985.234-.312.235-.453.813l-.922-.125q.125-.578.407-.938.297-.375.828-.562.547-.203 1.25-.203.719 0 1.156.171.438.172.64.422.22.25.298.641.046.234.046.86v1.25q0 1.296.063 1.656.062.343.234.656h-.968q-.157-.297-.188-.688zm-.078-2.079q-.516.203-1.531.344-.578.078-.828.187-.235.11-.36.313-.125.187-.125.437 0 .375.281.625.282.25.829.25.53 0 .953-.234.422-.234.625-.656.156-.313.156-.938v-.328zm4.442 1.922l.125.828q-.39.094-.703.094-.5 0-.781-.156-.282-.172-.407-.438-.109-.265-.109-1.11v-3.171h-.687v-.734h.687v-1.36l.938-.562v1.922h.937v.734h-.937v3.234q0 .391.046.516.047.11.157.187.11.063.328.063.156 0 .406-.047zm4.539.844v-.813q-.656.938-1.75.938-.5 0-.922-.188-.422-.187-.625-.468-.203-.282-.297-.704-.047-.265-.047-.875v-3.421h.938v3.062q0 .734.047 1 .093.36.375.578.296.203.703.203.422 0 .797-.203.375-.219.515-.594.156-.375.156-1.078v-2.968h.938v5.53h-.828zm2.286 0v-5.531h.843v.843q.329-.593.594-.78.281-.188.61-.188.468 0 .953.312l-.313.86q-.344-.204-.687-.204-.313 0-.563.188-.234.187-.344.515-.156.5-.156 1.094v2.89h-.937zm7.345-1.781l.969.125q-.234.843-.86 1.312-.609.469-1.578.469-1.203 0-1.921-.75-.704-.75-.704-2.094 0-1.39.72-2.156.718-.781 1.859-.781 1.109 0 1.812.765.703.75.703 2.125v.235h-4.125q.047.921.516 1.406.469.484 1.156.484.516 0 .875-.265.36-.282.578-.875zm-3.078-1.516h3.094q-.063-.688-.36-1.047-.453-.531-1.156-.531-.64 0-1.094.437-.437.422-.484 1.141zm8.012 3.422l.453-2.219h-.875v-.766h1.032l.39-1.89h-1.422v-.781h1.578l.454-2.235h.78l-.452 2.235h1.64l.453-2.235h.782l-.453 2.235h.906v.78h-1.063l-.39 1.891h1.453v.766h-1.61l-.453 2.219h-.78l.452-2.219h-1.64l-.454 2.219h-.78zm1.39-2.985h1.641l.391-1.89h-1.64l-.391 1.89zm4.459.844l.937-.125q.156.797.547 1.156.39.344.937.344.657 0 1.11-.453.469-.469.469-1.14 0-.641-.422-1.063-.422-.422-1.078-.422-.266 0-.657.11l.11-.829q.093.016.14.016.594 0 1.078-.313.485-.312.485-.968 0-.516-.36-.844-.343-.344-.89-.344-.547 0-.922.344-.36.344-.453 1.031l-.938-.172q.172-.937.782-1.453.609-.515 1.5-.515.625 0 1.156.265.531.266.797.735.281.453.281.984 0 .484-.266.89-.265.407-.78.657.671.156 1.046.656.375.484.375 1.219 0 1-.734 1.703-.72.687-1.829.687-1 0-1.671-.593-.657-.61-.75-1.563z"/>
        <path fill="#6aa84f" d="M371.819 64.001a9.04 9.04 0 1118.079 0 9.04 9.04 0 11-18.079 0zM564.895 64.001a9.04 9.04 0 1118.079 0 9.04 9.04 0 11-18.079 0z" fill-rule="evenodd"/>
        <path fill="none" d="M1.15 64.001a9.04 9.04 0 0118.079 0 9.04 9.04 0 11-18.079 0z"/>
        <path stroke="#000" stroke-linejoin="round" stroke-linecap="butt" stroke-dasharray="4.0,3.0" d="M1.15 64.001h0a9.04 9.04 0 019.039-9.04h0a9.04 9.04 0 019.04 9.04h0a9.04 9.04 0 01-9.04 9.04h0A9.04 9.04 0 011.149 64z"/>
        <path fill="none" d="M19.228 64.001H142.19v.063h122.96"/>
        <path stroke="#000" stroke-linejoin="round" stroke-linecap="butt" d="M19.228 64.001H142.19v.063h116.96"/>
        <path fill="#000" stroke="#000" stroke-linecap="butt" d="M259.15 65.716l4.538-1.652-4.538-1.651z" fill-rule="evenodd"/>
        <path fill="none" d="M283.228 64.001h44.296v.063h44.303"/>
        <path stroke="#000" stroke-linejoin="round" stroke-linecap="butt" d="M283.228 64.001h44.296v.063h38.303"/>
        <path fill="#000" stroke="#000" stroke-linecap="butt" d="M365.827 65.716l4.538-1.652-4.538-1.651z" fill-rule="evenodd"/>
        <path fill="none" d="M389.898 64.001h87.497v.063h87.495"/>
        <path stroke="#000" stroke-linejoin="round" stroke-linecap="butt" d="M389.898 64.001h87.497v.063h81.495"/>
        <path fill="#000" stroke="#000" stroke-linecap="butt" d="M558.89 65.716l4.538-1.652-4.538-1.651z" fill-rule="evenodd"/>
        <path fill="none" d="M582.974 64.001h14.2V9.986h14.21"/>
        <path stroke="#000" stroke-linejoin="round" stroke-linecap="butt" d="M582.974 64.001h14.2V9.986h8.21"/>
        <path fill="#000" stroke="#000" stroke-linecap="butt" d="M605.383 11.637l4.538-1.651-4.538-1.652z" fill-rule="evenodd"/>
        <path fill="none" d="M487.108 37.021h25.644V9.966h25.631"/>
        <path stroke="#000" stroke-linejoin="round" stroke-linecap="butt" d="M487.108 37.021h25.644V9.966h19.631"/>
        <path fill="#000" stroke="#000" stroke-linecap="butt" d="M532.383 11.618l4.538-1.652-4.538-1.652z" fill-rule="evenodd"/>
        <path fill="none" d="M389.898 64.001h18.798V9.986h18.808"/>
        <path stroke="#000" stroke-linejoin="round" stroke-linecap="butt" d="M389.898 64.001h18.798V9.986h12.808"/>
        <path fill="#000" stroke="#000" stroke-linecap="butt" d="M421.504 11.637l4.538-1.651-4.538-1.652z" fill-rule="evenodd"/>
        <path fill="none" d="M1.15 118.028a9.04 9.04 0 0118.079 0 9.04 9.04 0 11-18.079 0z"/>
        <path stroke="#000" stroke-linejoin="round" stroke-linecap="butt" stroke-dasharray="4.0,3.0" d="M1.15 118.028h0a9.04 9.04 0 019.039-9.04h0a9.04 9.04 0 019.04 9.04h0a9.04 9.04 0 01-9.04 9.039h0a9.04 9.04 0 01-9.04-9.04z"/>
        <path fill="#b6d7a8" d="M217.144 118.029a9.04 9.04 0 0118.079 0 9.04 9.04 0 11-18.079 0zM510.423 118.029a9.04 9.04 0 0118.079 0 9.04 9.04 0 01-18.079 0z" fill-rule="evenodd"/>
        <path fill="none" d="M611.375 64.001a9.04 9.04 0 0118.079 0 9.04 9.04 0 11-18.079 0z"/>
        <path stroke="#000" stroke-linejoin="round" stroke-linecap="butt" stroke-dasharray="4.0,3.0" d="M611.375 64.001h0a9.04 9.04 0 019.04-9.04h0a9.04 9.04 0 019.039 9.04h0a9.04 9.04 0 01-9.04 9.04h0a9.04 9.04 0 01-9.039-9.04z"/>
        <path fill="none" d="M611.375 118.028a9.04 9.04 0 0118.079 0 9.04 9.04 0 11-18.079 0z"/>
        <path stroke="#000" stroke-linejoin="round" stroke-linecap="butt" stroke-dasharray="4.0,3.0" d="M611.375 118.028h0a9.04 9.04 0 019.04-9.04h0a9.04 9.04 0 019.039 9.04h0a9.04 9.04 0 01-9.04 9.039h0a9.04 9.04 0 01-9.039-9.04z"/>
        <path fill="none" d="M582.974 64.001h14.2v.063h14.21"/>
        <path stroke="#000" stroke-linejoin="round" stroke-linecap="butt" d="M582.974 64.001h14.2v.063h8.21"/>
        <path fill="#000" stroke="#000" stroke-linecap="butt" d="M605.383 65.716l4.538-1.652-4.538-1.651z" fill-rule="evenodd"/>
        <path fill="none" d="M19.228 118.028h60.776v.063h60.768"/>
        <path stroke="#000" stroke-linejoin="round" stroke-linecap="butt" d="M19.228 118.028h60.776v.063h54.768"/>
        <path fill="#000" stroke="#000" stroke-linecap="butt" d="M134.772 119.742l4.538-1.651-4.538-1.652z" fill-rule="evenodd"/>
        <path fill="none" d="M158.858 118.029h29.143v.063h29.156"/>
        <path stroke="#000" stroke-linejoin="round" stroke-linecap="butt" d="M158.858 118.029h29.143v.063h23.156"/>
        <path fill="#000" stroke="#000" stroke-linecap="butt" d="M211.157 119.744l4.539-1.652-4.539-1.652z" fill-rule="evenodd"/>
        <path fill="none" d="M235.223 118.029h14.963V64.013h14.958"/>
        <path stroke="#000" stroke-linejoin="round" stroke-linecap="butt" d="M235.223 118.029h14.963V64.013h8.958"/>
        <path fill="#000" stroke="#000" stroke-linecap="butt" d="M259.144 65.665l4.538-1.652-4.538-1.652z" fill-rule="evenodd"/>
        <path fill="none" d="M235.223 118.029h137.6v.063h137.613"/>
        <path stroke="#000" stroke-linejoin="round" stroke-linecap="butt" d="M235.223 118.029h137.6v.063h131.613"/>
        <path fill="#000" stroke="#000" stroke-linecap="butt" d="M504.436 119.744l4.538-1.652-4.538-1.652z" fill-rule="evenodd"/>
        <path fill="none" d="M528.501 118.029h41.438v.063h41.428"/>
        <path stroke="#000" stroke-linejoin="round" stroke-linecap="butt" d="M528.501 118.029h41.438v.063h35.428"/>
        <path fill="#000" stroke="#000" stroke-linecap="butt" d="M605.367 119.744l4.539-1.652-4.539-1.652z" fill-rule="evenodd"/>
        <path fill="none" d="M528.501 118.029h18.197V64.013h18.213"/>
        <path stroke="#000" stroke-linejoin="round" stroke-linecap="butt" d="M528.501 118.029h18.197V64.013h12.213"/>
        <path fill="#000" stroke="#000" stroke-linecap="butt" d="M558.91 65.665l4.539-1.652-4.538-1.652z" fill-rule="evenodd"/>
        <path fill="#ea9999" d="M325.029 91.047a9.04 9.04 0 0118.079 0 9.04 9.04 0 11-18.079 0zM286.131 91.016a9.04 9.04 0 0118.079 0 9.04 9.04 0 11-18.079 0z" fill-rule="evenodd"/>
        <path fill="none" d="M343.108 91.047h14.355V63.992h14.369"/>
        <path stroke="#000" stroke-linejoin="round" stroke-linecap="butt" d="M343.108 91.047h14.355V63.992h8.369"/>
        <path fill="#000" stroke="#000" stroke-linecap="butt" d="M365.832 65.644l4.538-1.652-4.538-1.652z" fill-rule="evenodd"/>
        <path fill="none" d="M304.21 91.016h10.41v.063h10.409"/>
        <path stroke="#000" stroke-linejoin="round" stroke-linecap="butt" d="M304.21 91.016h10.41v.063h4.409"/>
        <path fill="#000" stroke="#000" stroke-linecap="butt" d="M319.029 92.73l4.538-1.651-4.538-1.652z" fill-rule="evenodd"/>
        <path fill="none" d="M112.793 152.134h13.993v-34.11h14.007"/>
        <path stroke="#000" stroke-linejoin="round" stroke-linecap="butt" d="M112.793 152.134h13.993v-34.11h8.007"/>
        <path fill="#000" stroke="#000" stroke-linecap="butt" d="M134.793 119.675l4.538-1.651-4.538-1.652z" fill-rule="evenodd"/>
        <path fill="none" d="M76.882 152.134h8.916v.063h8.91"/>
        <path stroke="#000" stroke-linejoin="round" stroke-linecap="butt" d="M76.882 152.134h8.916v.063h2.91"/>
        <path fill="#000" stroke="#000" stroke-linecap="butt" d="M88.709 153.849l4.538-1.652-4.538-1.652z" fill-rule="evenodd"/>
        <path fill="none" d="M40.971 152.134h8.916v.063h8.91"/>
        <path stroke="#000" stroke-linejoin="round" stroke-linecap="butt" d="M40.971 152.134h8.916v.063h2.91"/>
        <path fill="#000" stroke="#000" stroke-linecap="butt" d="M52.798 153.849l4.538-1.652-4.538-1.652z" fill-rule="evenodd"/>
        <path fill="none" d="M184.793 152.134h16.175v-34.11h16.171"/>
        <path stroke="#000" stroke-linejoin="round" stroke-linecap="butt" d="M184.793 152.134h16.175v-34.11h10.171"/>
        <path fill="#000" stroke="#000" stroke-linecap="butt" d="M211.14 119.675l4.537-1.651-4.538-1.652z" fill-rule="evenodd"/>
        <path fill="#c9daf8" d="M462.535 152.165a9.04 9.04 0 1118.079 0 9.04 9.04 0 01-18.079 0zM422.535 152.165a9.04 9.04 0 1118.079 0 9.04 9.04 0 01-18.079 0z" fill-rule="evenodd"/>
        <path fill="none" d="M400.614 152.134h10.96v.063h10.961"/>
        <path stroke="#000" stroke-linejoin="round" stroke-linecap="butt" d="M400.614 152.134h10.96v.063h4.961"/>
        <path fill="#000" stroke="#000" stroke-linecap="butt" d="M416.535 153.849l4.539-1.652-4.539-1.652z" fill-rule="evenodd"/>
        <path fill="none" d="M440.614 152.165h10.96v.063h10.961"/>
        <path stroke="#000" stroke-linejoin="round" stroke-linecap="butt" d="M440.614 152.165h10.96v.063h4.961"/>
        <path fill="#000" stroke="#000" stroke-linecap="butt" d="M456.535 153.88l4.539-1.652-4.539-1.651z" fill-rule="evenodd"/>
        <path fill="none" d="M480.614 152.165h14.904v-34.141h14.891"/>
        <path stroke="#000" stroke-linejoin="round" stroke-linecap="butt" d="M480.614 152.165h14.904v-34.141h8.891"/>
        <path fill="#000" stroke="#000" stroke-linecap="butt" d="M504.41 119.675l4.538-1.651-4.539-1.652z" fill-rule="evenodd"/>
    </g>
</svg>
